%YAML 1.1
%TAG !u! tag:unity3d.com,2011:
--- !u!74 &7400000
AnimationClip:
  m_ObjectHideFlags: 0
  m_CorrespondingSourceObject: {fileID: 0}
  m_PrefabInstance: {fileID: 0}
  m_PrefabAsset: {fileID: 0}
  m_Name: Boomldel
  serializedVersion: 7
  m_Legacy: 0
  m_Compressed: 0
  m_UseHighQualityCurve: 1
  m_RotationCurves: []
  m_CompressedRotationCurves: []
  m_EulerCurves: []
  m_PositionCurves: []
  m_ScaleCurves: []
  m_FloatCurves: []
  m_PPtrCurves:
  - serializedVersion: 2
    curve:
    - time: 0
      value: {fileID: -2064859774160998932, guid: 606e3127513c6c74d852755e18a67337, type: 3}
    - time: 0.13333334
      value: {fileID: -3694533877916086887, guid: 606e3127513c6c74d852755e18a67337, type: 3}
    - time: 0.25
      value: {fileID: 2029542551908640097, guid: 606e3127513c6c74d852755e18a67337, type: 3}
    - time: 0.36666667
      value: {fileID: -2821042892349479055, guid: 606e3127513c6c74d852755e18a67337, type: 3}
    - time: 0.5
      value: {fileID: -4261047623482395726, guid: 606e3127513c6c74d852755e18a67337, type: 3}
    - time: 0.6333333
      value: {fileID: 3719068211130651045, guid: 606e3127513c6c74d852755e18a67337, type: 3}
    - time: 0.75
      value: {fileID: 5248844365648247204, guid: 606e3127513c6c74d852755e18a67337, type: 3}
    - time: 0.8666667
      value: {fileID: -7652154954077232485, guid: 606e3127513c6c74d852755e18a67337, type: 3}
    - time: 1
      value: {fileID: -3004918560657441691, guid: 606e3127513c6c74d852755e18a67337, type: 3}
    attribute: m_Sprite
    path: 
    classID: 212
    script: {fileID: 0}
    flags: 2
  m_SampleRate: 60
  m_WrapMode: 0
  m_Bounds:
    m_Center: {x: 0, y: 0, z: 0}
    m_Extent: {x: 0, y: 0, z: 0}
  m_ClipBindingConstant:
    genericBindings:
    - serializedVersion: 2
      path: 0
      attribute: 0
      script: {fileID: 0}
      typeID: 212
      customType: 23
      isPPtrCurve: 1
      isIntCurve: 0
      isSerializeReferenceCurve: 0
    pptrCurveMapping:
    - {fileID: -2064859774160998932, guid: 606e3127513c6c74d852755e18a67337, type: 3}
    - {fileID: -3694533877916086887, guid: 606e3127513c6c74d852755e18a67337, type: 3}
    - {fileID: 2029542551908640097, guid: 606e3127513c6c74d852755e18a67337, type: 3}
    - {fileID: -2821042892349479055, guid: 606e3127513c6c74d852755e18a67337, type: 3}
    - {fileID: -4261047623482395726, guid: 606e3127513c6c74d852755e18a67337, type: 3}
    - {fileID: 3719068211130651045, guid: 606e3127513c6c74d852755e18a67337, type: 3}
    - {fileID: 5248844365648247204, guid: 606e3127513c6c74d852755e18a67337, type: 3}
    - {fileID: -7652154954077232485, guid: 606e3127513c6c74d852755e18a67337, type: 3}
    - {fileID: -3004918560657441691, guid: 606e3127513c6c74d852755e18a67337, type: 3}
  m_AnimationClipSettings:
    serializedVersion: 2
    m_AdditiveReferencePoseClip: {fileID: 0}
    m_AdditiveReferencePoseTime: 0
    m_StartTime: 0
    m_StopTime: 1.0166667
    m_OrientationOffsetY: 0
    m_Level: 0
    m_CycleOffset: 0
    m_HasAdditiveReferencePose: 0
    m_LoopTime: 1
    m_LoopBlend: 0
    m_LoopBlendOrientation: 0
    m_LoopBlendPositionY: 0
    m_LoopBlendPositionXZ: 0
    m_KeepOriginalOrientation: 0
    m_KeepOriginalPositionY: 1
    m_KeepOriginalPositionXZ: 0
    m_HeightFromFeet: 0
    m_Mirror: 0
  m_EditorCurves: []
  m_EulerEditorCurves: []
  m_HasGenericRootTransform: 0
  m_HasMotionFloatCurves: 0
  m_Events: []
