%YAML 1.1
%TAG !u! tag:unity3d.com,2011:
--- !u!74 &7400000
AnimationClip:
  m_ObjectHideFlags: 0
  m_CorrespondingSourceObject: {fileID: 0}
  m_PrefabInstance: {fileID: 0}
  m_PrefabAsset: {fileID: 0}
  m_Name: Powerldle
  serializedVersion: 7
  m_Legacy: 0
  m_Compressed: 0
  m_UseHighQualityCurve: 1
  m_RotationCurves: []
  m_CompressedRotationCurves: []
  m_EulerCurves: []
  m_PositionCurves: []
  m_ScaleCurves: []
  m_FloatCurves: []
  m_PPtrCurves:
  - serializedVersion: 2
    curve:
    - time: 0
      value: {fileID: 8033092973025764044, guid: 606e3127513c6c74d852755e18a67337, type: 3}
    - time: 0.13333334
      value: {fileID: 4337684191699249041, guid: 606e3127513c6c74d852755e18a67337, type: 3}
    - time: 0.25
      value: {fileID: -488721925442295091, guid: 606e3127513c6c74d852755e18a67337, type: 3}
    - time: 0.36666667
      value: {fileID: -7573354855677281409, guid: 606e3127513c6c74d852755e18a67337, type: 3}
    - time: 0.5
      value: {fileID: 1801263428120863714, guid: 606e3127513c6c74d852755e18a67337, type: 3}
    - time: 0.6333333
      value: {fileID: -5971942374765049077, guid: 606e3127513c6c74d852755e18a67337, type: 3}
    - time: 0.75
      value: {fileID: 4639506938558671751, guid: 606e3127513c6c74d852755e18a67337, type: 3}
    - time: 0.8666667
      value: {fileID: -6099050445329199328, guid: 606e3127513c6c74d852755e18a67337, type: 3}
    - time: 1
      value: {fileID: -7855203551248514480, guid: 606e3127513c6c74d852755e18a67337, type: 3}
    attribute: m_Sprite
    path: 
    classID: 212
    script: {fileID: 0}
    flags: 2
  m_SampleRate: 60
  m_WrapMode: 0
  m_Bounds:
    m_Center: {x: 0, y: 0, z: 0}
    m_Extent: {x: 0, y: 0, z: 0}
  m_ClipBindingConstant:
    genericBindings:
    - serializedVersion: 2
      path: 0
      attribute: 0
      script: {fileID: 0}
      typeID: 212
      customType: 23
      isPPtrCurve: 1
      isIntCurve: 0
      isSerializeReferenceCurve: 0
    pptrCurveMapping:
    - {fileID: 8033092973025764044, guid: 606e3127513c6c74d852755e18a67337, type: 3}
    - {fileID: 4337684191699249041, guid: 606e3127513c6c74d852755e18a67337, type: 3}
    - {fileID: -488721925442295091, guid: 606e3127513c6c74d852755e18a67337, type: 3}
    - {fileID: -7573354855677281409, guid: 606e3127513c6c74d852755e18a67337, type: 3}
    - {fileID: 1801263428120863714, guid: 606e3127513c6c74d852755e18a67337, type: 3}
    - {fileID: -5971942374765049077, guid: 606e3127513c6c74d852755e18a67337, type: 3}
    - {fileID: 4639506938558671751, guid: 606e3127513c6c74d852755e18a67337, type: 3}
    - {fileID: -6099050445329199328, guid: 606e3127513c6c74d852755e18a67337, type: 3}
    - {fileID: -7855203551248514480, guid: 606e3127513c6c74d852755e18a67337, type: 3}
  m_AnimationClipSettings:
    serializedVersion: 2
    m_AdditiveReferencePoseClip: {fileID: 0}
    m_AdditiveReferencePoseTime: 0
    m_StartTime: 0
    m_StopTime: 1.0166667
    m_OrientationOffsetY: 0
    m_Level: 0
    m_CycleOffset: 0
    m_HasAdditiveReferencePose: 0
    m_LoopTime: 1
    m_LoopBlend: 0
    m_LoopBlendOrientation: 0
    m_LoopBlendPositionY: 0
    m_LoopBlendPositionXZ: 0
    m_KeepOriginalOrientation: 0
    m_KeepOriginalPositionY: 1
    m_KeepOriginalPositionXZ: 0
    m_HeightFromFeet: 0
    m_Mirror: 0
  m_EditorCurves: []
  m_EulerEditorCurves: []
  m_HasGenericRootTransform: 0
  m_HasMotionFloatCurves: 0
  m_Events: []
